Problem Set 3
…
Women with technical or human resources degrees collect more salary in a month than men with degrees in the same education field.

##Question 4: Create a graph that shows average levels of monthly income by field of education, gender, and job level.

First I made a prediction regarding average level of monthly income by education field, gender, and job level ranking. As noted in the problem set instructions, the highest ranked employees are rated 5. I then created a new command called inc_avg, which is equal to mean monthly income grouped by education field, gender, and job level rating.

at_sum2<-at%>%
  group_by(EducationField,Gender,JobLevel)%>%
  summarize(inc_avg=mean(MonthlyIncome))%>%
  arrange(-inc_avg)

at_sum2

## # A tibble: 58 x 4
## # Groups:   EducationField, Gender [12]
##    EducationField   Gender JobLevel inc_avg
##    <chr>            <chr>     <int>   <dbl>
##  1 Technical Degree Female        5  19744 
##  2 Other            Male          5  19443.
##  3 Human Resources  Male          5  19322 
##  4 Medical          Male          5  19251.
##  5 Technical Degree Male          5  19232 
##  6 Life Sciences    Male          5  19232.
##  7 Life Sciences    Female        5  19143 
##  8 Marketing        Female        5  19101.
##  9 Other            Female        5  19094 
## 10 Medical          Female        5  19032.
## #  with 48 more rows
…
